46.vcd
$date
	Sat Nov 10 16:01:56 2018
$end
$version
	Icarus Verilog
$end
$timescale
	1s
$end
$scope module test $end
$var wire 3 ! q1 [2:0] $end
$var wire 3 " q [2:0] $end
$var reg 1 # clk $end
$scope module c $end
$var wire 1 # clk $end
$var reg 3 $ q [2:0] $end
$var reg 3 % q1 [2:0] $end
$upscope $end
$upscope $end
$enddefinitions $end
#0
$dumpvars
b10 %
b0 $
0#
b0 "
b10 !
$end
#5
b11 "
b11 $
1#
#10
b100 !
b100 %
0#
#15
b110 "
b110 $
1#
#20
b110 !
b110 %
0#
#25
b0 "
b0 $
1#
#30
b0 !
b0 %
0#
#35
b11 "
b11 $
1#
#40
b10 !
b10 %
0#
#45
b110 "
b110 $
1#
#50
b100 !
b100 %
0#
#55
b0 "
b0 $
1#
#60
b110 !
b110 %
0#
#65
b11 "
b11 $
1#
#70
b0 !
b0 %
0#
#75
b110 "
b110 $
1#
#80
b10 !
b10 %
0#
#85
b0 "
b0 $
1#
#90
b100 !
b100 %
0#
#95
b11 "
b11 $
1#
#100
b110 !
b110 %
0#
#105
b110 "
b110 $
1#
#110
b0 !
b0 %
0#
#115
b0 "
b0 $
1#
#120
b10 !
b10 %
0#
#125
b11 "
b11 $
1#
#130
b100 !
b100 %
0#
#135
b110 "
b110 $
1#
#140
b110 !
b110 %
0#
#145
b0 "
b0 $
1#
#150
b0 !
b0 %
0#
#155
b11 "
b11 $
1#
#160
b10 !
b10 %
0#
#165
b110 "
b110 $
1#
#170
b100 !
b100 %
0#
#175
b0 "
b0 $
1#
#180
b110 !
b110 %
0#
#185
b11 "
b11 $
1#
#190
b0 !
b0 %
0#
#195
b110 "
b110 $
1#
#200
b10 !
b10 %
0#
#205
b0 "
b0 $
1#
#210
b100 !
b100 %
0#
#215
b11 "
b11 $
1#
#220
b110 !
b110 %
0#
#225
b110 "
b110 $
1#
#230
b0 !
b0 %
0#
#235
b0 "
b0 $
1#
#240
b10 !
b10 %
0#
#245
b11 "
b11 $
1#
#250
b100 !
b100 %
0#
#255
b110 "
b110 $
1#
#260
b110 !
b110 %
0#
#265
b0 "
b0 $
1#
#270
b0 !
b0 %
0#
#275
b11 "
b11 $
1#
#280
b10 !
b10 %
0#
#285
b110 "
b110 $
1#
#290
b100 !
b100 %
0#
#295
b0 "
b0 $
1#
#300
b110 !
b110 %
0#
#305
b11 "
b11 $
1#
#310
b0 !
b0 %
0#
#315
b110 "
b110 $
1#
#320
b10 !
b10 %
0#
#325
b0 "
b0 $
1#
#330
b100 !
b100 %
0#
#335
b11 "
b11 $
1#
#340
b110 !
b110 %
0#
#345
b110 "
b110 $
1#
#350
b0 !
b0 %
0#
#355
b0 "
b0 $
1#
#360
b10 !
b10 %
0#
#365
b11 "
b11 $
1#
#370
b100 !
b100 %
0#
#375
b110 "
b110 $
1#
#380
b110 !
b110 %
0#
#385
b0 "
b0 $
1#
#390
b0 !
b0 %
0#
#395
b11 "
b11 $
1#
#400
b10 !
b10 %
0#
#405
b110 "
b110 $
1#
#410
b100 !
b100 %
0#
#415
b0 "
b0 $
1#
#420
b110 !
b110 %
0#
#425
b11 "
b11 $
1#
#430
b0 !
b0 %
0#
#435
b110 "
b110 $
1#
#440
b10 !
b10 %
0#
#445
b0 "
b0 $
1#
#450
b100 !
b100 %
0#
#455
b11 "
b11 $
1#
#460
b110 !
b110 %
0#
#465
b110 "
b110 $
1#
#470
b0 !
b0 %
0#
#475
b0 "
b0 $
1#
#480
b10 !
b10 %
0#
#485
b11 "
b11 $
1#
#490
b100 !
b100 %
0#
#495
b110 "
b110 $
1#
#500
b110 !
b110 %
0#
#505
b0 "
b0 $
1#
#510
b0 !
b0 %
0#
#515
b11 "
b11 $
1#
#520
b10 !
b10 %
0#
#525
b110 "
b110 $
1#
#530
b100 !
b100 %
0#
#535
b0 "
b0 $
1#
#540
b110 !
b110 %
0#
#545
b11 "
b11 $
1#
#550
b0 !
b0 %
0#
#555
b110 "
b110 $
1#
#560
b10 !
b10 %
0#
#565
b0 "
b0 $
1#
#570
b100 !
b100 %
0#
#575
b11 "
b11 $
1#
#580
b110 !
b110 %
0#
#585
b110 "
b110 $
1#
#590
b0 !
b0 %
0#
#595
b0 "
b0 $
1#
#600
b10 !
b10 %
0#
#605
b11 "
b11 $
1#
#610
b100 !
b100 %
0#
#615
b110 "
b110 $
1#
#620
b110 !
b110 %
0#
#625
b0 "
b0 $
1#
#630
b0 !
b0 %
0#
#635
b11 "
b11 $
1#
#640
b10 !
b10 %
0#
#645
b110 "
b110 $
1#
#650
b100 !
b100 %
0#
