47.vcd
$date
	Sat Nov 10 16:02:21 2018
$end
$version
	Icarus Verilog
$end
$timescale
	1s
$end
$scope module test $end
$var wire 5 ! q [4:0] $end
$var reg 1 " clk $end
$var reg 1 # clr $end
$scope module c $end
$var wire 1 " clk $end
$var wire 1 # clr $end
$var wire 5 $ q [4:0] $end
$var reg 5 % tmp [4:0] $end
$upscope $end
$upscope $end
$enddefinitions $end
#0
$dumpvars
bx %
bx $
1#
0"
bx !
$end
#5
b0 !
b0 $
b0 %
1"
#7
b1 !
b1 $
b1 %
0#
#10
0"
#15
b10 !
b10 $
b10 %
1"
#20
0"
#25
b11 !
b11 $
b11 %
1"
#30
0"
#35
b100 !
b100 $
b100 %
1"
#40
0"
#45
b101 !
b101 $
b101 %
1"
#50
0"
#55
b110 !
b110 $
b110 %
1"
#60
0"
#65
b111 !
b111 $
b111 %
1"
#70
0"
#75
b1000 !
b1000 $
b1000 %
1"
#80
0"
#85
b1001 !
b1001 $
b1001 %
1"
#90
0"
#95
b1010 !
b1010 $
b1010 %
1"
#100
0"
#105
b1011 !
b1011 $
b1011 %
1"
#110
0"
#115
b1100 !
b1100 $
b1100 %
1"
#120
0"
#125
b1101 !
b1101 $
b1101 %
1"
#130
0"
#135
b1110 !
b1110 $
b1110 %
1"
#140
0"
#145
b1111 !
b1111 $
b1111 %
1"
#150
0"
#155
b10000 !
b10000 $
b10000 %
1"
#160
0"
#165
b10001 !
b10001 $
b10001 %
1"
#170
0"
#175
b10010 !
b10010 $
b10010 %
1"
#180
0"
#185
b10011 !
b10011 $
b10011 %
1"
#190
0"
#195
b10100 !
b10100 $
b10100 %
1"
#200
0"
#205
b10101 !
b10101 $
b10101 %
1"
#210
0"
#215
b10110 !
b10110 $
b10110 %
1"
#220
0"
#225
b10111 !
b10111 $
b10111 %
1"
#230
0"
#235
b11000 !
b11000 $
b11000 %
1"
#240
0"
#245
b11001 !
b11001 $
b11001 %
1"
#250
0"
#255
b11010 !
b11010 $
b11010 %
1"
#260
0"
#265
b11011 !
b11011 $
b11011 %
1"
#270
0"
#275
b11100 !
b11100 $
b11100 %
1"
#280
0"
#285
b11101 !
b11101 $
b11101 %
1"
#290
0"
#295
b11110 !
b11110 $
b11110 %
1"
#300
0"
#305
b11111 !
b11111 $
b11111 %
1"
#310
0"
#315
b0 !
b0 $
b0 %
1"
#320
0"
#325
b1 !
b1 $
b1 %
1"
#330
0"
#335
b10 !
b10 $
b10 %
1"
#340
0"
#345
b11 !
b11 $
b11 %
1"
#350
0"
#355
b100 !
b100 $
b100 %
1"
#360
0"
#365
b101 !
b101 $
b101 %
1"
#370
0"
#375
b110 !
b110 $
b110 %
1"
#380
0"
#385
b111 !
b111 $
b111 %
1"
#390
0"
#395
b1000 !
b1000 $
b1000 %
1"
#400
0"
#405
b1001 !
b1001 $
b1001 %
1"
#410
0"
#415
b1010 !
b1010 $
b1010 %
1"
#420
0"
#425
b1011 !
b1011 $
b1011 %
1"
#430
0"
#435
b1100 !
b1100 $
b1100 %
1"
#440
0"
#445
b1101 !
b1101 $
b1101 %
1"
#450
0"
#455
b1110 !
b1110 $
b1110 %
1"
#460
0"
#465
b1111 !
b1111 $
b1111 %
1"
#470
0"
#475
b10000 !
b10000 $
b10000 %
1"
#480
0"
#485
b10001 !
b10001 $
b10001 %
1"
#490
0"
#495
b10010 !
b10010 $
b10010 %
1"
#500
0"
#505
b10011 !
b10011 $
b10011 %
1"
#510
0"
#515
b10100 !
b10100 $
b10100 %
1"
#520
0"
#525
b10101 !
b10101 $
b10101 %
1"
#530
0"
#535
b10110 !
b10110 $
b10110 %
1"
#540
0"
#545
b10111 !
b10111 $
b10111 %
1"
#550
0"
#555
b11000 !
b11000 $
b11000 %
1"
#560
0"
#565
b11001 !
b11001 $
b11001 %
1"
#570
0"
#575
b11010 !
b11010 $
b11010 %
1"
#580
0"
#585
b11011 !
b11011 $
b11011 %
1"
#590
0"
#595
b11100 !
b11100 $
b11100 %
1"
#600
0"
#605
b11101 !
b11101 $
b11101 %
1"
#610
0"
#615
b11110 !
b11110 $
b11110 %
1"
#620
0"
#625
b11111 !
b11111 $
b11111 %
1"
#630
0"
#635
b0 !
b0 $
b0 %
1"
#640
0"
#645
b1 !
b1 $
b1 %
1"
